…
    ## Rows: 1458 Columns: 123
    ## ── Column specification ────────────────────────────────────────────────────────
    ## Delimiter: ","
    ## chr   (3): ISO_code, countries, region
    ## dbl (120): year, pf_rol_procedural, pf_rol_civil, pf_rol_criminal, pf_rol, p...
    ## 
    ## ℹ Use `spec()` to retrieve the full column specification for this data.
    ## ℹ Specify the column types or set `show_col_types = FALSE` to quiet this message.

``` r
hfi_2016 <- hfi %>% filter(year==2016)
hfi_2016 %>% select(pf_score, pf_expression_control)
```

    ## # A tibble: 162 × 2
    ##    pf_score pf_expression_control
    ##       <dbl>                 <dbl>
    ##  1     7.60                  5.25
    ##  2     5.28                  4   
    ##  3     6.11                  2.5 
    ##  4     8.10                  5.5 
    ##  5     6.91                  4.25
    ##  6     9.18                  7.75
    ##  7     9.25                  8   
    ##  8     5.68                  0.25
    ##  9     7.45                  7.25
    ## 10     6.14                  0.75
    ## # … with 152 more rows
…
